\relax 
\providecommand\hyper@newdestlabel[2]{}
\providecommand\HyperFirstAtBeginDocument{\AtBeginDocument}
\HyperFirstAtBeginDocument{\ifx\hyper@anchor\@undefined
\global\let\oldcontentsline\contentsline
\gdef\contentsline#1#2#3#4{\oldcontentsline{#1}{#2}{#3}}
\global\let\oldnewlabel\newlabel
\gdef\newlabel#1#2{\newlabelxx{#1}#2}
\gdef\newlabelxx#1#2#3#4#5#6{\oldnewlabel{#1}{{#2}{#3}}}
\AtEndDocument{\ifx\hyper@anchor\@undefined
\let\contentsline\oldcontentsline
\let\newlabel\oldnewlabel
\fi}
\fi}
\global\let\hyper@last\relax 
\gdef\HyperFirstAtBeginDocument#1{#1}
\providecommand\HyField@AuxAddToFields[1]{}
\providecommand\HyField@AuxAddToCoFields[2]{}
\bibstyle{plainurl}
\providecommand \oddpage@label [2]{}
\newlabel{toc}{{}{ii}{}{Doc-Start}{}}
\newlabel{toc@cref}{{}{[i][2][]ii}}
\newlabel{lof}{{}{iii}{\contentsname \@mkboth {\MakeUppercase \contentsname }{\MakeUppercase \contentsname }}{chapter*.1}{}}
\newlabel{lof@cref}{{}{[i][3][]iii}}
\citation{Silver1140}
\@writefile{toc}{\contentsline {chapter}{\numberline {1}Introduction}{1}{chapter.1}\protected@file@percent }
\@writefile{lof}{\addvspace {10\p@ }}
\@writefile{lot}{\addvspace {10\p@ }}
\@writefile{loa}{\addvspace {10\p@ }}
\newlabel{sec:intro}{{1}{1}{Introduction}{chapter.1}{}}
\newlabel{sec:intro@cref}{{[chapter][1][]1}{[1][1][]1}}
\citation{43moves}
\citation{43moves}
\citation{israel}
\@writefile{toc}{\contentsline {section}{\numberline {1.1}Problem Statement}{2}{section.1.1}\protected@file@percent }
\citation{43moves}
\citation{israel}
\@writefile{lof}{\contentsline {figure}{\numberline {1.1}{\ignorespaces Example of a game move. Players alternate placing marks, and each player's mark determines which board their opponent will place a mark next. In this figure, One player has placed a circle in the top-left corner of the center board. The second player must then place their next mark on the top-left board (outlined with a square).}}{3}{figure.1.1}\protected@file@percent }
\newlabel{fig:move_example}{{1.1}{3}{Example of a game move. Players alternate placing marks, and each player's mark determines which board their opponent will place a mark next. In this figure, One player has placed a circle in the top-left corner of the center board. The second player must then place their next mark on the top-left board (outlined with a square)}{figure.1.1}{}}
\newlabel{fig:move_example@cref}{{[figure][1][1]1.1}{[1][3][]3}}
\@writefile{toc}{\contentsline {section}{\numberline {1.2}Related Work}{3}{section.1.2}\protected@file@percent }
\citation{israel}
\citation{AI_agent}
\@writefile{lof}{\contentsline {figure}{\numberline {1.2}{\ignorespaces Complete game of Ultimate Tic-Tac-Toe. O has three boards in a row, winning the game.}}{4}{figure.1.2}\protected@file@percent }
\newlabel{fig:win}{{1.2}{4}{Complete game of Ultimate Tic-Tac-Toe. O has three boards in a row, winning the game}{figure.1.2}{}}
\newlabel{fig:win@cref}{{[figure][2][1]1.2}{[1][3][]4}}
\@writefile{lof}{\contentsline {figure}{\numberline {1.3}{\ignorespaces There is no winning strategy that involves winning the bottom-left board for any player. All moves should be focused on winning one of the two other remaining boards, but previous heuristics would determine that winning the bottom-left board is still a good move. }}{5}{figure.1.3}\protected@file@percent }
\newlabel{fig:useless}{{1.3}{5}{There is no winning strategy that involves winning the bottom-left board for any player. All moves should be focused on winning one of the two other remaining boards, but previous heuristics would determine that winning the bottom-left board is still a good move}{figure.1.3}{}}
\newlabel{fig:useless@cref}{{[figure][3][1]1.3}{[1][4][]5}}
\@writefile{toc}{\contentsline {chapter}{\numberline {2}Methods}{6}{chapter.2}\protected@file@percent }
\@writefile{lof}{\addvspace {10\p@ }}
\@writefile{lot}{\addvspace {10\p@ }}
\@writefile{loa}{\addvspace {10\p@ }}
\newlabel{sec:methods}{{2}{6}{Methods}{chapter.2}{}}
\newlabel{sec:methods@cref}{{[chapter][2][]2}{[1][6][]6}}
\@writefile{toc}{\contentsline {section}{\numberline {2.1}Simple Heuristic: Greedy}{6}{section.2.1}\protected@file@percent }
\newlabel{greedy}{{2.1}{6}{Simple Heuristic: Greedy}{section.2.1}{}}
\newlabel{greedy@cref}{{[section][1][2]2.1}{[1][6][]6}}
\@writefile{lof}{\contentsline {figure}{\numberline {2.1}{\ignorespaces Each cell is assigned a unique number that can be used to specify a move. Each turn there is a range of valid moves, so if the player must move in the center board, they are prompted for a number between 36 and 44.}}{7}{figure.2.1}\protected@file@percent }
\newlabel{fig:moves}{{2.1}{7}{Each cell is assigned a unique number that can be used to specify a move. Each turn there is a range of valid moves, so if the player must move in the center board, they are prompted for a number between 36 and 44}{figure.2.1}{}}
\newlabel{fig:moves@cref}{{[figure][1][2]2.1}{[1][6][]7}}
\@writefile{toc}{\contentsline {section}{\numberline {2.2}New Heuristic}{7}{section.2.2}\protected@file@percent }
\@writefile{toc}{\contentsline {section}{\numberline {2.3}Alpha- Beta- Pruning and Depth Limit}{10}{section.2.3}\protected@file@percent }
\@writefile{toc}{\contentsline {chapter}{\numberline {3}Results}{12}{chapter.3}\protected@file@percent }
\@writefile{lof}{\addvspace {10\p@ }}
\@writefile{lot}{\addvspace {10\p@ }}
\@writefile{loa}{\addvspace {10\p@ }}
\newlabel{sec:Work1}{{3}{12}{Results}{chapter.3}{}}
\newlabel{sec:Work1@cref}{{[chapter][3][]3}{[1][12][]12}}
\@writefile{toc}{\contentsline {chapter}{\numberline {4}Discussion}{13}{chapter.4}\protected@file@percent }
\@writefile{lof}{\addvspace {10\p@ }}
\@writefile{lot}{\addvspace {10\p@ }}
\@writefile{loa}{\addvspace {10\p@ }}
\newlabel{sec:conclude}{{4}{13}{Discussion}{chapter.4}{}}
\newlabel{sec:conclude@cref}{{[chapter][4][]4}{[1][13][]13}}
\bibdata{PowellMerrillBib}
\@writefile{toc}{\contentsline {chapter}{\numberline {5}Conclusion}{14}{chapter.5}\protected@file@percent }
\@writefile{lof}{\addvspace {10\p@ }}
\@writefile{lot}{\addvspace {10\p@ }}
\@writefile{loa}{\addvspace {10\p@ }}
\bibcite{AI_agent}{1}
\bibcite{43moves}{2}
\bibcite{israel}{3}
\bibcite{Silver1140}{4}
\@writefile{toc}{\contentsline {chapter}{Bibliography}{15}{chapter*.3}\protected@file@percent }
\gdef \@abspage@last{19}
